Id,Name
1,Bolton
2,Dominguez
3,Bentley
4,Stout
5,Bonilla
6,Hoover
7,Clark
8,Jackson
9,Waller
10,Ashley
11,Beltran
12,Goodman
13,Ritter
14,Weaver
15,Reyes
16,Garza
17,Molina
18,Middleton
19,Herman
20,Pierce
21,Robbins
22,Andrade
23,Abbott
24,Lloyd
25,Santiago
26,Shaffer
27,Charles
28,Johns
29,Strong
30,Villanueva
31,Acevedo
32,David
33,Ford
34,Stein
35,Arellano
36,Parsons
37,Mueller
