Id;Name;TypeId
-3;тестовый связанный клиент;2
-2;тестовый список из трех элементов;1
-1;тестовый список;1
1;Тестовая строка;0
2;адрес;0
3;телефон;0
6;доход;1
7;приведи друга;2
8;Stefanie476;2
9;Dennis91;2
10;Herman239;2
11;Jeannie2;1
12;Lesley7;0
13;Tasha137;1
14;Lisa;2
15;Nicolas;1
16;Kara7;2
17;Lindsay988;0
18;Charlene5;0
19;Stephan;1
20;Earnest46;1
21;Carla23;1
22;Kirsten363;2
23;Jose;0
24;Meredith;2
25;Sherri0;2
26;Phillip035;2
27;Allen;0
